{
  "name": "sta",
  "title": "Star Trek Adventures 2D20",
  "description": "The Star Trek Adventures 2D20 system for FoundryVTT!",
  "version": "-",
  "minimumCoreVersion": "0.8.6",
  "compatibleCoreVersion": "9",
  "author": "Ludovic Danigo",
  "esmodules": [
    "module/sta.mjs"
  ],
  "styles": [
    "css/sta.css"
  ],
  "scripts": [],
  "packs": [],
  "dependencies": [],
  "languages": [],
  "gridDistance": 1,
  "gridUnits": "m",
  "primaryTokenAttribute": "stress",
  "secondaryTokenAttribute": "power",
  "url": "https://gitlab.com/ldng/foundryvtt-sta-system",
  "license": "LICENSE.txt",
  "manifest": "-",
  "download": "-"
}
